https://www.kommersant.ru                                                       +
https://www.mk.ru/                                                              +
https://nalog-nalog.ru/glavnye_novosti/                                         +
https://buh.ru/news/                                                            +
https://www.glavbukh.ru/news                                                    -
https://www.gb.by/novosti/vsya-lenta                                            +
http://www.consultant.ru/legalnews/                                             +
https://www.v2b.ru/uncos/                                                       +
